^C:\USERS\BIRKY\DOCUMENTS\VISUAL STUDIO 2012\PROJECTS\GSLIC_FINAL\GSLIC\MAIN.CPP
C:\USERS\BIRKY\DOCUMENTS\VISUAL STUDIO 2012\PROJECTS\GSLIC_FINAL\GSLIC\X64\RELEASE\MAIN.OBJ
C:\USERS\BIRKY\DOCUMENTS\VISUAL STUDIO 2012\PROJECTS\GSLIC_FINAL\GSLIC\X64\RELEASE\VC110.PDB
^C:\USERS\BIRKY\DOCUMENTS\VISUAL STUDIO 2012\PROJECTS\GSLIC_BITBUCKET\GSLIC\MAIN.CPP
C:\USERS\BIRKY\DOCUMENTS\VISUAL STUDIO 2012\PROJECTS\GSLIC_BITBUCKET\GSLIC\X64\RELEASE\MAIN.OBJ
C:\USERS\BIRKY\DOCUMENTS\VISUAL STUDIO 2012\PROJECTS\GSLIC_BITBUCKET\GSLIC\X64\RELEASE\VC110.PDB
