^C:\USERS\BIRKY\DOCUMENTS\VISUAL STUDIO 2012\PROJECTS\GSLIC_FINAL\GSLIC\MAIN.CPP
E:\APPS\MICROSOFT VISUAL STUDIO 11.0\VC\BIN\1033\CLUI.DLL
C:\WINDOWS\GLOBALIZATION\SORTING\SORTDEFAULT.NLS
C:\WINDOWS\SYSTEM32\RSAENH.DLL
C:\WINDOWS\SYSTEM32\TZRES.DLL
E:\APPS\MICROSOFT VISUAL STUDIO 11.0\VC\INCLUDE\TIME.H
E:\APPS\MICROSOFT VISUAL STUDIO 11.0\VC\INCLUDE\CRTDEFS.H
E:\APPS\MICROSOFT VISUAL STUDIO 11.0\VC\INCLUDE\SAL.H
E:\APPS\MICROSOFT VISUAL STUDIO 11.0\VC\INCLUDE\CONCURRENCYSAL.H
E:\APPS\MICROSOFT VISUAL STUDIO 11.0\VC\INCLUDE\VADEFS.H
E:\APPS\MICROSOFT VISUAL STUDIO 11.0\VC\INCLUDE\WTIME.INL
E:\APPS\MICROSOFT VISUAL STUDIO 11.0\VC\INCLUDE\TIME.INL
E:\APPS\MICROSOFT VISUAL STUDIO 11.0\VC\INCLUDE\STDIO.H
E:\APPS\MICROSOFT VISUAL STUDIO 11.0\VC\INCLUDE\SWPRINTF.INL
C:\PROGRAM FILES\NVIDIA GPU COMPUTING TOOLKIT\CUDA\V6.0\INCLUDE\CUDA.H
E:\APPS\MICROSOFT VISUAL STUDIO 11.0\VC\INCLUDE\STDLIB.H
E:\APPS\MICROSOFT VISUAL STUDIO 11.0\VC\INCLUDE\LIMITS.H
C:\PROGRAM FILES\NVIDIA GPU COMPUTING TOOLKIT\CUDA\V6.0\INCLUDE\CUDA_RUNTIME.H
C:\PROGRAM FILES\NVIDIA GPU COMPUTING TOOLKIT\CUDA\V6.0\INCLUDE\HOST_CONFIG.H
C:\PROGRAM FILES\NVIDIA GPU COMPUTING TOOLKIT\CUDA\V6.0\INCLUDE\BUILTIN_TYPES.H
C:\PROGRAM FILES\NVIDIA GPU COMPUTING TOOLKIT\CUDA\V6.0\INCLUDE\DEVICE_TYPES.H
C:\PROGRAM FILES\NVIDIA GPU COMPUTING TOOLKIT\CUDA\V6.0\INCLUDE\HOST_DEFINES.H
C:\PROGRAM FILES\NVIDIA GPU COMPUTING TOOLKIT\CUDA\V6.0\INCLUDE\DRIVER_TYPES.H
E:\APPS\MICROSOFT VISUAL STUDIO 11.0\VC\INCLUDE\STDDEF.H
C:\PROGRAM FILES\NVIDIA GPU COMPUTING TOOLKIT\CUDA\V6.0\INCLUDE\SURFACE_TYPES.H
C:\PROGRAM FILES\NVIDIA GPU COMPUTING TOOLKIT\CUDA\V6.0\INCLUDE\TEXTURE_TYPES.H
C:\PROGRAM FILES\NVIDIA GPU COMPUTING TOOLKIT\CUDA\V6.0\INCLUDE\VECTOR_TYPES.H
C:\PROGRAM FILES\NVIDIA GPU COMPUTING TOOLKIT\CUDA\V6.0\INCLUDE\CHANNEL_DESCRIPTOR.H
C:\PROGRAM FILES\NVIDIA GPU COMPUTING TOOLKIT\CUDA\V6.0\INCLUDE\CUDA_RUNTIME_API.H
C:\PROGRAM FILES\NVIDIA GPU COMPUTING TOOLKIT\CUDA\V6.0\INCLUDE\CUDA_DEVICE_RUNTIME_API.H
C:\PROGRAM FILES\NVIDIA GPU COMPUTING TOOLKIT\CUDA\V6.0\INCLUDE\DRIVER_FUNCTIONS.H
C:\PROGRAM FILES\NVIDIA GPU COMPUTING TOOLKIT\CUDA\V6.0\INCLUDE\VECTOR_FUNCTIONS.H
C:\PROGRAM FILES\NVIDIA GPU COMPUTING TOOLKIT\CUDA\V6.0\INCLUDE\DEVICE_LAUNCH_PARAMETERS.H
C:\USERS\BIRKY\DOCUMENTS\VISUAL STUDIO 2012\PROJECTS\GSLIC_FINAL\GSLIC_ENGINE\FASTIMGSEG.H
C:\USERS\BIRKY\DOCUMENTS\VISUAL STUDIO 2012\PROJECTS\GSLIC_FINAL\GSLIC_ENGINE\CUDAUTIL.H
E:\APPS\MICROSOFT VISUAL STUDIO 11.0\VC\INCLUDE\MATH.H
C:\USERS\BIRKY\DOCUMENTS\VISUAL STUDIO 2012\PROJECTS\GSLIC_FINAL\GSLIC_ENGINE\CUDADEFINES.H
C:\USERS\BIRKY\DOCUMENTS\VISUAL STUDIO 2012\PROJECTS\GSLIC_FINAL\GSLIC_ENGINE\CUDASEGSLIC.H
