^C:\USERS\BIRKY\DOCUMENTS\VISUAL STUDIO 2012\PROJECTS\GSLIC_FINAL\GSLIC_ENGINE\FASTIMGSEG.CPP
/c /I"C:\Program Files\NVIDIA GPU Computing Toolkit\CUDA\v6.0\include" /Zi /nologo /W3 /WX- /O2 /Oi /GL /D WIN32 /D WIN64 /D NDEBUG /D _CONSOLE /D _MBCS /Gm- /EHsc /MD /GS /Gy /fp:precise /Zc:wchar_t /Zc:forScope /Fo"X64\RELEASE\\" /Fd"X64\RELEASE\VC110.PDB" /Gd /TP C:\USERS\BIRKY\DOCUMENTS\VISUAL STUDIO 2012\PROJECTS\GSLIC_FINAL\GSLIC_ENGINE\FASTIMGSEG.CPP
^C:\USERS\BIRKY\DOCUMENTS\VISUAL STUDIO 2012\PROJECTS\GSLIC_BITBUCKET\GSLIC_ENGINE\FASTIMGSEG.CPP
/c /I"C:\Program Files\NVIDIA GPU Computing Toolkit\CUDA\v6.0\include" /Zi /nologo /W3 /WX- /O2 /Oi /GL /D WIN32 /D WIN64 /D NDEBUG /D _CONSOLE /D _MBCS /Gm- /EHsc /MD /GS /Gy /fp:precise /Zc:wchar_t /Zc:forScope /Fo"X64\RELEASE\\" /Fd"X64\RELEASE\VC110.PDB" /Gd /TP C:\USERS\BIRKY\DOCUMENTS\VISUAL STUDIO 2012\PROJECTS\GSLIC_BITBUCKET\GSLIC_ENGINE\FASTIMGSEG.CPP
