^C:\USERS\BIRKY\DOCUMENTS\VISUAL STUDIO 2012\PROJECTS\GSLIC_FINAL\GSLIC_ENGINE\X64\RELEASE\CUDAFEATURES.CU.OBJ|C:\USERS\BIRKY\DOCUMENTS\VISUAL STUDIO 2012\PROJECTS\GSLIC_FINAL\GSLIC_ENGINE\X64\RELEASE\CUDAIMGTRANS.CU.OBJ|C:\USERS\BIRKY\DOCUMENTS\VISUAL STUDIO 2012\PROJECTS\GSLIC_FINAL\GSLIC_ENGINE\X64\RELEASE\CUDASEGENGINE.CU.OBJ|C:\USERS\BIRKY\DOCUMENTS\VISUAL STUDIO 2012\PROJECTS\GSLIC_FINAL\GSLIC_ENGINE\X64\RELEASE\CUDASEGSLIC.CU.OBJ|C:\USERS\BIRKY\DOCUMENTS\VISUAL STUDIO 2012\PROJECTS\GSLIC_FINAL\GSLIC_ENGINE\X64\RELEASE\CUDAUTIL.CU.OBJ|C:\USERS\BIRKY\DOCUMENTS\VISUAL STUDIO 2012\PROJECTS\GSLIC_FINAL\GSLIC_ENGINE\X64\RELEASE\FASTIMGSEG.OBJ
/OUT:"C:\USERS\BIRKY\DOCUMENTS\VISUAL STUDIO 2012\PROJECTS\GSLIC_FINAL\X64\RELEASE\GSLIC_ENGINE.LIB" /NOLOGO /MACHINE:X64 /LTCG X64\RELEASE\CUDAFEATURES.CU.OBJX64\RELEASE\CUDAIMGTRANS.CU.OBJX64\RELEASE\CUDASEGENGINE.CU.OBJX64\RELEASE\CUDASEGSLIC.CU.OBJX64\RELEASE\CUDAUTIL.CU.OBJX64\RELEASE\FASTIMGSEG.OBJ
^C:\USERS\BIRKY\DOCUMENTS\VISUAL STUDIO 2012\PROJECTS\GSLIC_BITBUCKET\GSLIC_ENGINE\X64\RELEASE\CUDAFEATURES.CU.OBJ|C:\USERS\BIRKY\DOCUMENTS\VISUAL STUDIO 2012\PROJECTS\GSLIC_BITBUCKET\GSLIC_ENGINE\X64\RELEASE\CUDAIMGTRANS.CU.OBJ|C:\USERS\BIRKY\DOCUMENTS\VISUAL STUDIO 2012\PROJECTS\GSLIC_BITBUCKET\GSLIC_ENGINE\X64\RELEASE\CUDASEGENGINE.CU.OBJ|C:\USERS\BIRKY\DOCUMENTS\VISUAL STUDIO 2012\PROJECTS\GSLIC_BITBUCKET\GSLIC_ENGINE\X64\RELEASE\CUDASEGSLIC.CU.OBJ|C:\USERS\BIRKY\DOCUMENTS\VISUAL STUDIO 2012\PROJECTS\GSLIC_BITBUCKET\GSLIC_ENGINE\X64\RELEASE\CUDAUTIL.CU.OBJ|C:\USERS\BIRKY\DOCUMENTS\VISUAL STUDIO 2012\PROJECTS\GSLIC_BITBUCKET\GSLIC_ENGINE\X64\RELEASE\FASTIMGSEG.OBJ
/OUT:"C:\USERS\BIRKY\DOCUMENTS\VISUAL STUDIO 2012\PROJECTS\GSLIC_BITBUCKET\X64\RELEASE\GSLIC_ENGINE.LIB" /NOLOGO /MACHINE:X64 /LTCG X64\RELEASE\CUDAFEATURES.CU.OBJX64\RELEASE\CUDAIMGTRANS.CU.OBJX64\RELEASE\CUDASEGENGINE.CU.OBJX64\RELEASE\CUDASEGSLIC.CU.OBJX64\RELEASE\CUDAUTIL.CU.OBJX64\RELEASE\FASTIMGSEG.OBJ
