^C:\USERS\BIRKY\DOCUMENTS\VISUAL STUDIO 2012\PROJECTS\GSLIC\GSLIC_ENGINE\FASTIMGSEG.CPP
/c /I"C:\Program Files\NVIDIA GPU Computing Toolkit\CUDA\v6.0\include" /Zi /nologo /W3 /WX- /Od /D WIN32 /D WIN64 /D _DEBUG /D _CONSOLE /D _MBCS /Gm /EHsc /RTC1 /MDd /GS /fp:precise /Zc:wchar_t /Zc:forScope /Fo"X64\DEBUG\\" /Fd"X64\DEBUG\VC110.PDB" /Gd /TP C:\USERS\BIRKY\DOCUMENTS\VISUAL STUDIO 2012\PROJECTS\GSLIC\GSLIC_ENGINE\FASTIMGSEG.CPP
^C:\USERS\BIRKY\DOCUMENTS\VISUAL STUDIO 2012\PROJECTS\GSLICPUBLIC\GSLIC_ENGINE\FASTIMGSEG.CPP
/c /I"C:\Program Files\NVIDIA GPU Computing Toolkit\CUDA\v6.0\include" /Zi /nologo /W3 /WX- /Od /D WIN32 /D WIN64 /D _DEBUG /D _CONSOLE /D _MBCS /Gm /EHsc /RTC1 /MDd /GS /fp:precise /Zc:wchar_t /Zc:forScope /Fo"X64\DEBUG\\" /Fd"X64\DEBUG\VC110.PDB" /Gd /TP C:\USERS\BIRKY\DOCUMENTS\VISUAL STUDIO 2012\PROJECTS\GSLICPUBLIC\GSLIC_ENGINE\FASTIMGSEG.CPP
^C:\USERS\BIRKY\DOCUMENTS\VISUAL STUDIO 2012\PROJECTS\GSLIC_FINAL\GSLIC_ENGINE\FASTIMGSEG.CPP
/c /I"C:\Program Files\NVIDIA GPU Computing Toolkit\CUDA\v6.0\include" /Zi /nologo /W3 /WX- /Od /D WIN32 /D WIN64 /D _DEBUG /D _CONSOLE /D _MBCS /Gm /EHsc /RTC1 /MDd /GS /fp:precise /Zc:wchar_t /Zc:forScope /Fo"X64\DEBUG\\" /Fd"X64\DEBUG\VC110.PDB" /Gd /TP C:\USERS\BIRKY\DOCUMENTS\VISUAL STUDIO 2012\PROJECTS\GSLIC_FINAL\GSLIC_ENGINE\FASTIMGSEG.CPP
^C:\USERS\BIRKY\DOCUMENTS\VISUAL STUDIO 2012\PROJECTS\GSLIC_FINAL\GSLIC_ENGINE\CUDAFEATURES.CPP
/c /I"C:\Program Files\NVIDIA GPU Computing Toolkit\CUDA\v6.0\include" /Zi /nologo /W3 /WX- /Od /D WIN32 /D WIN64 /D _DEBUG /D _CONSOLE /D _MBCS /Gm /EHsc /RTC1 /MDd /GS /fp:precise /Zc:wchar_t /Zc:forScope /Fo"X64\DEBUG\\" /Fd"X64\DEBUG\VC110.PDB" /Gd /TP C:\USERS\BIRKY\DOCUMENTS\VISUAL STUDIO 2012\PROJECTS\GSLIC_FINAL\GSLIC_ENGINE\CUDAFEATURES.CPP
^C:\USERS\BIRKY\DOCUMENTS\VISUAL STUDIO 2012\PROJECTS\GSLIC_BITBUCKET\GSLIC_ENGINE\FASTIMGSEG.CPP
/c /I"C:\Program Files\NVIDIA GPU Computing Toolkit\CUDA\v6.0\include" /Zi /nologo /W3 /WX- /Od /D WIN32 /D WIN64 /D _DEBUG /D _CONSOLE /D _MBCS /Gm /EHsc /RTC1 /MDd /GS /fp:precise /Zc:wchar_t /Zc:forScope /Fo"X64\DEBUG\\" /Fd"X64\DEBUG\VC110.PDB" /Gd /TP C:\USERS\BIRKY\DOCUMENTS\VISUAL STUDIO 2012\PROJECTS\GSLIC_BITBUCKET\GSLIC_ENGINE\FASTIMGSEG.CPP
