^C:\USERS\BIRKY\DOCUMENTS\VISUAL STUDIO 2012\PROJECTS\GSLIC\GSLIC_ENGINE\FASTIMGSEG.CPP
C:\USERS\BIRKY\DOCUMENTS\VISUAL STUDIO 2012\PROJECTS\GSLIC\GSLIC_ENGINE\X64\DEBUG\FASTIMGSEG.OBJ
C:\USERS\BIRKY\DOCUMENTS\VISUAL STUDIO 2012\PROJECTS\GSLIC\GSLIC_ENGINE\X64\DEBUG\VC110.PDB
^C:\USERS\BIRKY\DOCUMENTS\VISUAL STUDIO 2012\PROJECTS\GSLICPUBLIC\GSLIC_ENGINE\FASTIMGSEG.CPP
C:\USERS\BIRKY\DOCUMENTS\VISUAL STUDIO 2012\PROJECTS\GSLICPUBLIC\GSLIC_ENGINE\X64\DEBUG\FASTIMGSEG.OBJ
C:\USERS\BIRKY\DOCUMENTS\VISUAL STUDIO 2012\PROJECTS\GSLICPUBLIC\GSLIC_ENGINE\X64\DEBUG\VC110.PDB
^C:\USERS\BIRKY\DOCUMENTS\VISUAL STUDIO 2012\PROJECTS\GSLIC_FINAL\GSLIC_ENGINE\FASTIMGSEG.CPP
C:\USERS\BIRKY\DOCUMENTS\VISUAL STUDIO 2012\PROJECTS\GSLIC_FINAL\GSLIC_ENGINE\X64\DEBUG\FASTIMGSEG.OBJ
C:\USERS\BIRKY\DOCUMENTS\VISUAL STUDIO 2012\PROJECTS\GSLIC_FINAL\GSLIC_ENGINE\X64\DEBUG\VC110.PDB
^C:\USERS\BIRKY\DOCUMENTS\VISUAL STUDIO 2012\PROJECTS\GSLIC_FINAL\GSLIC_ENGINE\CUDAFEATURES.CPP|C:\USERS\BIRKY\DOCUMENTS\VISUAL STUDIO 2012\PROJECTS\GSLIC_FINAL\GSLIC_ENGINE\FASTIMGSEG.CPP
C:\USERS\BIRKY\DOCUMENTS\VISUAL STUDIO 2012\PROJECTS\GSLIC_FINAL\GSLIC_ENGINE\X64\DEBUG\CUDAFEATURES.OBJ
C:\USERS\BIRKY\DOCUMENTS\VISUAL STUDIO 2012\PROJECTS\GSLIC_FINAL\GSLIC_ENGINE\X64\DEBUG\FASTIMGSEG.OBJ
^C:\USERS\BIRKY\DOCUMENTS\VISUAL STUDIO 2012\PROJECTS\GSLIC_FINAL\GSLIC_ENGINE\CUDAFEATURES.CPP
C:\USERS\BIRKY\DOCUMENTS\VISUAL STUDIO 2012\PROJECTS\GSLIC_FINAL\GSLIC_ENGINE\X64\DEBUG\VC110.PDB
^C:\USERS\BIRKY\DOCUMENTS\VISUAL STUDIO 2012\PROJECTS\GSLIC_BITBUCKET\GSLIC_ENGINE\FASTIMGSEG.CPP
C:\USERS\BIRKY\DOCUMENTS\VISUAL STUDIO 2012\PROJECTS\GSLIC_BITBUCKET\GSLIC_ENGINE\X64\DEBUG\FASTIMGSEG.OBJ
C:\USERS\BIRKY\DOCUMENTS\VISUAL STUDIO 2012\PROJECTS\GSLIC_BITBUCKET\GSLIC_ENGINE\X64\DEBUG\VC110.PDB
